Island Nations Covid Analysis
…
rel_data %>% 
  arrange(desc(new_cases_per_million))

## # A tibble: 6,005 x 6
##    location date       new_cases_per_m~ new_cases_smoot~ new_deaths_per_~
##    <chr>    <date>                <dbl>            <dbl>            <dbl>
##  1 Ireland  2021-01-08            1666.            1225.             4.05
##  2 Ireland  2021-01-06            1586.             897.             3.44
##  3 Ireland  2021-01-10            1395.            1323.             1.62
##  4 Ireland  2021-01-07            1317.            1038.             1.62
##  5 Ireland  2021-01-04            1237.             611.             1.22
##  6 Ireland  2021-01-05            1078.             720.             3.44
##  7 Ireland  2021-01-03            1005.             456.             1.42
##  8 United ~ 2021-01-08            1005.             877.            19.6 
##  9 Ireland  2021-01-11             998.            1289.             1.62
## 10 Ireland  2021-01-09             981.            1267.             1.82
## # ... with 5,995 more rows, and 1 more variable:
## #   new_deaths_smoothed_per_million <dbl>
…
rel_data %>% 
  arrange(desc(new_deaths_per_million))

## # A tibble: 6,005 x 6
##    location date       new_cases_per_m~ new_cases_smoot~ new_deaths_per_~
##    <chr>    <date>                <dbl>            <dbl>            <dbl>
##  1 Ireland  2020-04-24             117.             122.             44.6
##  2 United ~ 2021-01-20             574.             620.             26.9
##  3 United ~ 2021-01-27             374.             442.             25.4
##  4 United ~ 2021-01-26             297.             470.             24.1
##  5 United ~ 2021-01-19             493.             639.             23.7
##  6 United ~ 2021-01-13             702.             791.             23.1
##  7 United ~ 2021-02-02             249.             344.             21.4
##  8 United ~ 2021-01-22             594.             565.             20.6
##  9 Ireland  2021-02-02             176.             248.             20.5
## 10 United ~ 2021-01-23             496.             549.             19.9
## # ... with 5,995 more rows, and 1 more variable:
## #   new_deaths_smoothed_per_million <dbl>
